EA Market testing data analysis - 3 Giving What We Can: Giving guides
…
levels(gwwc_vid_results$audience)

[1] "philanthropy" "animal"       "climate"      "general"      "lookalike"   
[6] "poverty"      "retargeting" 

3.5.4 PLOT: DV (results) by video and audience

Questions/Notes: Removed the retargeting audience

Code

print(gwwc_vid_results %>% filter(ave.cost.impr>0 & audience !="retargeting") %>% group_by(media,audience) %>% summarise(results=100*mean(DV),SE=100*std.error(DV),n=n()),n=10) %>% .kable(digits=2)

# A tibble: 29 × 5
# Groups:   media [6]
   media         audience     results     SE     n
   <fct>         <fct>          <dbl>  <dbl> <int>
 1 factual short philanthropy  0.228  0.0195 59660
 2 factual short animal        0.203  0.0149 90832
 3 factual short climate       0.205  0.0146 96005
 4 factual short general       0.0964 0.0249 15559
 5 factual short lookalike     0.389  0.0336 34207
 6 factual short poverty       0.213  0.0247 34815
 7 animal        philanthropy  0.213  0.0163 79525
 8 animal        animal        0.280  0.0186 80642
 9 animal        general       0.142  0.0367 10542
10 animal        lookalike     0.424  0.0669  9441
# … with 19 more rows
…
[1] "factor"

Code

gwwc_vid_results$Age <- relevel(gwwc_vid_results$Age, ref="18-24")
gwwc_vid_results$Age <- relevel(gwwc_vid_results$Age, ref="13-17")
levels(gwwc_vid_results$Age)

[1] "13-17" "18-24" "25-34" "35-44" "45-54" "55-64" "65+"  

Code

print(gwwc_vid_results %>% filter(ave.cost.impr>0) %>% group_by(Age,media) %>% summarise(results=100*mean(DV),SE=100*std.error(DV),n=n()),n=5) %>% .kable(digits=2)

# A tibble: 39 × 5
# Groups:   Age [7]
  Age   media         results    SE     n
  <fct> <fct>           <dbl> <dbl> <int>
1 13-17 factual short       0     0   176
2 13-17 animal              0     0   101
3 13-17 climate             0     0    20
4 13-17 factual long        0    NA     1
5 13-17 hypercube           0     0    46
# … with 34 more rows
…
Code

summary(subset(gwwc_vid_results,restriction18_39==0),DV~media*agetrin+ave.cost.impr))

Error: <text>:1:85: unexpected ')'
1: summary(subset(gwwc_vid_results,restriction18_39==0),DV~media*agetrin+ave.cost.impr))
                                                                                        ^

means and SEs

Code

gwwc_vid_results %>% filter(restriction18_39==0) %>% group_by(Age,media) %>% summarise(results=mean(DV)*100,SE=std.error(DV)*100,n=n(),cost=mean(ave.cost.impr),CPR=cost/results)

# A tibble: 34 × 7
# Groups:   Age [7]
   Age   media         results     SE     n   cost      CPR
   <fct> <fct>           <dbl>  <dbl> <int>  <dbl>    <dbl>
 1 13-17 factual short   0     0         15 0.0193 Inf     
 2 13-17 animal          0     0         23 0.0170 Inf     
 3 13-17 factual long    0     0          2 0.005  Inf     
 4 13-17 poverty         0     0         12 0.0167 Inf     
 5 18-24 factual short   0.114 0.0378  7928 0.0149   0.131 
 6 18-24 animal          0.147 0.0322 14242 0.0178   0.121 
 7 18-24 climate         0.169 0.169    592 0.0138   0.0817
 8 18-24 factual long    0     0       5283 0.0156 Inf     
 9 18-24 poverty         0.161 0.0658  3720 0.0170   0.105 
10 25-34 factual short   0.194 0.0343 16480 0.0173   0.089 
# … with 24 more rows
…
in just early campaigns

Code

summary(lm(gwwc_vid_results=subset(gwwc_vid_results,restriction18_39==0),DV_costadj~media*agetrin))

Error in h(simpleError(msg, call)): error in evaluating the argument 'object' in selecting a method for function 'summary': object 'DV_costadj' not found

means and SEs

Code

gwwc_vid_results %>% filter(restriction18_39==0) %>% group_by(Age,media) %>% summarise(results=mean(DV)*100,SE=std.error(DV)*100,n=n(),cost=mean(ave.cost.impr),CPR=cost/results)

# A tibble: 34 × 7
# Groups:   Age [7]
   Age   media         results     SE     n   cost      CPR
   <fct> <fct>           <dbl>  <dbl> <int>  <dbl>    <dbl>
 1 13-17 factual short   0     0         15 0.0193 Inf     
 2 13-17 animal          0     0         23 0.0170 Inf     
 3 13-17 factual long    0     0          2 0.005  Inf     
 4 13-17 poverty         0     0         12 0.0167 Inf     
 5 18-24 factual short   0.114 0.0378  7928 0.0149   0.131 
 6 18-24 animal          0.147 0.0322 14242 0.0178   0.121 
 7 18-24 climate         0.169 0.169    592 0.0138   0.0817
 8 18-24 factual long    0     0       5283 0.0156 Inf     
 9 18-24 poverty         0.161 0.0658  3720 0.0170   0.105 
10 25-34 factual short   0.194 0.0343 16480 0.0173   0.089 
# … with 24 more rows
…
